{
    "_links": {
        "self": {
            "href": "https://api.data.amsterdam.nl/bag/nummeraanduiding/"
        },
        "next": {
            "href": "https://api.data.amsterdam.nl/bag/nummeraanduiding/?page=2"
        },
        "previous": {
            "href": null
        }
    },
    "count": 513503,
    "results": [
        {
            "_links": {
                "self": {
                    "href": "https://api.data.amsterdam.nl/bag/nummeraanduiding/0363200000006110/"
                }
            },
            "_display": "Eerste Anjeliersdwarsstraat 1-H",
            "id": 1234,
            "melding_id": 124,
            "location": {
                "latitude": 52.376,
                "logitude": 4.901,
                "stadsdeel": "Centrum"
            },
            "current_state": {
                "state": "Gemeld",
                "description": "Verblijfsobject in gebruik"
            },
            "department": "Waternet",
            "category": "watermelding",
            "subcategory": "overlast",
            "incident_date": "2018-05-19T07:22:15Z"
        }
    ]
}
