{
    "_links": {
        "self": {
            "href": "https://api.data.amsterdam.nl/bag/nummeraanduiding/"
        },
        "next": {
            "href": "https://api.data.amsterdam.nl/bag/nummeraanduiding/?page=2"
        },
        "previous": {
            "href": null
        }
    },
    "count": 513503,
    "results": [
 	{
      "id": 1,
      "melding_id": 4,
      "date": "2018-05-19T07:22:15Z",
      "state": "Gemeld",
      "description": "",
      "usermail": "admin@meldingen.amsterdam.nl"
    },
  	{
      "id": 0,
      "melding_id": 4,
      "date": "2018-05-19T07:22:15Z",
      "state": "In afwachting van behandeling",
      "description": "Pak het verder morgen op",
      "usermail": "admin@meldingen.amsterdam.nl"
  	}
    ]
}
